[
    {
        "id": 1,
        "nome": "Renan Vieira",
        "idade": 21,
        "funcao": "Violonista",
        "descricao": "Olá, sou Renan, tenho 21 anos, e toco violão para o senhor",
        "avatar": "renan.jpeg"
    },
    {
        "id": 2,
        "nome": "Edson Queiroz",
        "idade": 21,
        "funcao": "Baixista",
        "descricao": "Olá, sou Edson, tenho 41 anos, e toco diversos instrumentos, porém o que eu toco atualmente é 'Baixo' para o senhor",
        "avatar": "edson.jpeg"
    }
]